{"photos":{"page":1,"pages":25,"perpage":20,"total":500,"photo":[{"id":"32789892901","owner":"92361032@N05","secret":"7e88838bc8","server":"2258","farm":3,"title":"La vie en rose","ispublic":1,"isfriend":0,"isfamily":0},{"id":"32107170293","owner":"96106108@N07","secret":"75538f84bb","server":"2455","farm":3,"title":"\/ i    \\","ispublic":1,"isfriend":0,"isfamily":0},{"id":"32526698830","owner":"129524245@N08","secret":"ff8e05c8b8","server":"2288","farm":3,"title":"Red Fox","ispublic":1,"isfriend":0,"isfamily":0},{"id":"32877562896","owner":"112711738@N06","secret":"a17634877d","server":"3755","farm":4,"title":"Venice Essence.","ispublic":1,"isfriend":0,"isfamily":0},{"id":"32540844690","owner":"143575226@N05","secret":"edca6a5fed","server":"586","farm":1,"title":"The way back","ispublic":1,"isfriend":0,"isfamily":0},{"id":"32539479270","owner":"67560866@N02","secret":"d0ebd48049","server":"494","farm":1,"title":"On Top of the World","ispublic":1,"isfriend":0,"isfamily":0},{"id":"32917686875","owner":"97554600@N04","secret":"24169c6cd5","server":"614","farm":1,"title":"Lebenspfade","ispublic":1,"isfriend":0,"isfamily":0},{"id":"32869419836","owner":"77798688@N03","secret":"d00fb23090","server":"3759","farm":4,"title":"Barred Owl \/ Chouette ray\u00e9e \/ Strix varia","ispublic":1,"isfriend":0,"isfamily":0},{"id":"32785353241","owner":"46752442@N05","secret":"b627db9449","server":"732","farm":1,"title":"Wet and Unhappy","ispublic":1,"isfriend":0,"isfamily":0},{"id":"32070782874","owner":"36804699@N00","secret":"1d0fb93fd6","server":"2081","farm":3,"title":"The stare {Explored}","ispublic":1,"isfriend":0,"isfamily":0},{"id":"32762309012","owner":"34430197@N04","secret":"0ec6f66b17","server":"2051","farm":3,"title":"Horsetail Fall Sunset, 2017","ispublic":1,"isfriend":0,"isfamily":0},{"id":"32104970023","owner":"99252536@N04","secret":"6d44f808b0","server":"3696","farm":4,"title":"Springtail","ispublic":1,"isfriend":0,"isfamily":0},{"id":"32072604764","owner":"22475926@N08","secret":"41dd842be5","server":"2218","farm":3,"title":"Bald Eagle (Haliaeetus leucocephalus)","ispublic":1,"isfriend":0,"isfamily":0},{"id":"32910674565","owner":"105859735@N04","secret":"eb238d8b0d","server":"2685","farm":3,"title":"From behind..........in Explore","ispublic":1,"isfriend":0,"isfamily":0},{"id":"32868882946","owner":"39652177@N04","secret":"860b52a2e1","server":"2368","farm":3,"title":"Crested Carcara","ispublic":1,"isfriend":0,"isfamily":0},{"id":"32769173102","owner":"64012448@N03","secret":"05b3456bba","server":"2706","farm":3,"title":"My favorite clouds (EXPLORE)","ispublic":1,"isfriend":0,"isfamily":0},{"id":"32098158063","owner":"62034343@N07","secret":"ab98718f42","server":"529","farm":1,"title":"Kirkjufell B&W","ispublic":1,"isfriend":0,"isfamily":0},{"id":"32759407652","owner":"129894947@N04","secret":"2a43af3911","server":"2637","farm":3,"title":"Golden moments, Joshua tree park","ispublic":1,"isfriend":0,"isfamily":0},{"id":"32880171236","owner":"16209124@N00","secret":"c6be11e9a8","server":"659","farm":1,"title":"Klein geaderd witje - Green-veined white - Pieris napi","ispublic":1,"isfriend":0,"isfamily":0},{"id":"32879453136","owner":"37797387@N03","secret":"e12f79d2f0","server":"2031","farm":3,"title":"sunrise in venice","ispublic":1,"isfriend":0,"isfamily":0}]},"stat":"ok"}
